Bib #,First Name,Last Name,Place,Category,Age Group,Team Name,USAC,City,Total Laps,Total Time,Chute Time,Lap 1 Time,Lap 1 Pace,Lap 2 Time,Lap 2 Pace,Lap 3 Time,Lap 3 Pace
4,Nevada,Thomason,1,XC Pro/Open,Pro/Open MEN,desTroyforce.com,187734,Whitehouse,  4, 1:48:41.62,    0:55.52,   34:52.67,14.2mph,   36:17.02,13.6mph,   36:36.41,13.5mph
1,Will,Black,2,XC Pro/Open,Pro/Open MEN,,58540,Austin,  4, 1:48:54.01,    0:57.40,   34:51.09,14.2mph,   36:17.26,13.6mph,   36:48.26,13.5mph
27,Christian,Velmig,3,XC Pro/Open,Pro/Open MEN,,245376,,  4, 1:52:14.23,    0:57.13,   36:31.16,13.6mph,   37:39.80,13.1mph,   37:06.14,13.3mph
31,Brandon,Melott,4,XC Pro/Open,Pro/Open MEN,,260604,Oklahoma City,  4, 1:52:53.61,    0:57.71,   35:59.96,13.8mph,   37:53.59,13.1mph,   38:02.35,13.0mph
32,Michael,Wilder,5,XC Pro/Open,Pro/Open MEN,,260481,Dallas,  4, 1:53:35.80,    0:58.91,   36:27.28,13.6mph,   37:44.44,13.1mph,   38:25.17,12.9mph
33,Barret,Davis,6,XC Pro/Open,Pro/Open MEN,,337886,,  4, 1:54:27.52,    0:58.36,   36:40.90,13.5mph,   37:31.17,13.2mph,   39:17.09,12.6mph
35,Nicholas,Garza,7,XC Pro/Open,Pro/Open MEN,,218994,Irving,  4, 1:56:42.60,    0:57.65,   36:44.76,13.5mph,   38:45.77,12.8mph,   40:14.42,12.3mph
41,Jeremy,Morris,8,XC Pro/Open,Pro/Open MEN,,272491,Arlington,  4, 1:59:37.92,    0:58.60,   37:55.93,13.1mph,   40:12.46,12.3mph,   40:30.93,12.2mph
2,Ryan,Dromgoole,9,XC Pro/Open,Pro/Open MEN,PACC/Plano Athletic Cycling Club/PACC,275193,Denton,  4, 2:00:02.94,    0:56.12,   36:43.79,13.5mph,   42:52.19,11.5mph,   39:30.84,12.5mph
3,Joey,Guajardo,10,XC Pro/Open,Pro/Open MEN,,290830,Dallas,  4, 2:06:01.33,    0:58.01,   39:27.65,12.5mph,   41:36.93,11.9mph,   43:58.74,11.3mph
45,Chris,Carlson,11,XC Pro/Open,Pro/Open MEN,,6135,Plano,  4, 2:07:31.26,    1:46.52,   39:36.73,12.5mph,   42:02.49,11.8mph,   44:05.52,11.2mph
19,Luke,Allen,DNF,XC Pro/Open,Pro/Open MEN,,237533,,  1,    0:55.64,    0:55.64,,,,,,
22,Michael,Kincaid,DNF,XC Pro/Open,Pro/Open MEN,,19138,,  1,    0:58.92,    0:58.92,,,,,,
43,Ken,Primer,1,XC Cat 1,Master Men 30-39,,212529,Flower Mound,  4, 1:58:20.39,    0:58.93,   38:32.91,12.8mph,   39:39.59,12.5mph,   39:08.96,12.6mph
10,Troy,Cowin,2,XC Cat 1,Master Men 30-39,Bike One Racing presented by AOS,260030,Oklahoma City,  4, 1:58:31.34,    0:58.29,   37:59.75,13.0mph,   39:32.96,12.5mph,   40:00.34,12.4mph
21,Pedro,Del Busto,3,XC Cat 1,Master Men 30-39,,225793,Mckinney,  4, 2:02:53.73,    0:59.33,   38:25.19,12.9mph,   41:15.24,12.0mph,   42:13.97,11.7mph
9,Tom,Brandish,4,XC Cat 1,Master Men 30-39,McKinney Velo Club,233679,Mckinney,  4, 2:05:54.76,    1:00.07,   40:11.29,12.3mph,   41:59.05,11.8mph,   42:44.35,11.6mph
12,Justin,Moen,5,XC Cat 1,Master Men 30-39,,303595,Flower Mound,  4, 2:09:12.68,    0:59.69,   40:17.78,12.3mph,   42:18.60,11.7mph,   45:36.61,10.9mph
20,Matt,Beall,6,XC Cat 1,Master Men 30-39,,366315,Dallas,  4, 2:20:50.53,    1:04.31,   41:47.17,11.8mph,   45:26.84,10.9mph,   52:32.21,9.42mph
28,William,Mabus,7,XC Cat 1,Master Men 30-39,,42117,Dallas,  4, 2:36:56.82,    1:07.19,   47:11.36,10.5mph,   50:09.36,9.87mph,   58:28.91,8.47mph
11,Chris,Lorance,DNF,XC Cat 1,Master Men 30-39,,291254,Mckinney,  3, 1:27:55.77,    0:58.05,   40:18.19,12.3mph,   46:39.53,10.6mph,,
38,Adam,Meisler,DNF,XC Cat 1,Master Men 30-39,,,,  3, 1:31:45.20,    0:58.48,   43:34.44,11.4mph,   47:12.28,10.5mph,,
36,Taury,Patterson,DNF,XC Cat 1,Master Men 30-39,,360255,Dallas,  2,   39:13.76,    0:57.90,   38:15.86,12.9mph,,,,
8,Steven,Allen,DNF,XC Cat 1,Master Men 30-39,Dallas off Road Bicycling Association (DOBRA),357599,Allen,  1,    0:58.89,    0:58.89,,,,,,
30,Jeff,Turner,1,XC Cat 1,Master Men 40-49,,177873,Richardson,  3, 1:18:15.59,    0:54.53,   37:56.99,13.0mph,   39:24.07,12.6mph,,
39,John,Sanborn,2,XC Cat 1,Master Men 40-49,,173950,Dallas,  3, 1:20:37.60,    0:56.94,   38:56.33,12.7mph,   40:44.33,12.2mph,,
37,Kevin,Shea,3,XC Cat 1,Master Men 40-49,,246642,Prosper,  3, 1:21:44.34,    0:56.55,   39:24.94,12.6mph,   41:22.85,12.0mph,,
44,Josue,Ramos,4,XC Cat 1,Master Men 40-49,,334912,Dallas,  3, 1:21:44.55,    0:54.98,   38:53.08,12.7mph,   41:56.49,11.8mph,,
42,Don,Booker,5,XC Cat 1,Master Men 40-49,,178241,Sachse,  3, 1:23:47.24,    1:00.36,   41:13.96,12.0mph,   41:32.92,11.9mph,,
34,Joe,Gonzalez,6,XC Cat 1,Master Men 40-49,,335912,Allen,  3, 1:25:02.25,    0:57.49,   40:12.82,12.3mph,   43:51.94,11.3mph,,
13,Michael,Bohn,7,XC Cat 1,Master Men 40-49,Plano Athletic Cycling Club/PACC,212895,Celina,  3, 1:26:45.73,    0:57.25,   41:50.91,11.8mph,   43:57.57,11.3mph,,
24,Jamie,Bell,8,XC Cat 1,Master Men 40-49,,303829,Arlington,  3, 1:29:03.36,    0:57.67,   42:17.02,11.7mph,   45:48.67,10.8mph,,
40,Jeremy,Schmidt,9,XC Cat 1,Master Men 40-49,,148417,,  3, 1:32:03.80,    0:59.08,   45:02.46,11.0mph,   46:02.26,10.8mph,,
17,James,Johnson,1,XC Cat 1,Master Men 50+,,365838,Plano,  3, 1:23:52.92,    1:00.31,   40:10.47,12.3mph,   42:42.14,11.6mph,,
15,Lawrence,Colvin,2,XC Cat 1,Master Men 50+,,304354,Weatherford,  3, 1:24:28.75,    1:00.81,   39:59.75,12.4mph,   43:28.19,11.4mph,,
18,Drake,Moore,3,XC Cat 1,Master Men 50+,,24908,Mckinney,  3, 1:32:25.10,    1:00.14,   44:16.80,11.2mph,   47:08.16,10.5mph,,
25,Jerrry,McNutt,4,XC Cat 1,Master Men 50+,,,,  3, 1:33:09.30,    1:02.10,   46:28.57,10.7mph,   45:38.63,10.8mph,,
14,Phillip,Bird,DNF,XC Cat 1,Master Men 50+,,245630,Anna,  1,    0:59.98,    0:59.98,,,,,,
16,Todd,Fox,DNS,XC Cat 1,Master Men 50+,,,,,,,,,,,,
29,Xochilt,Gonzalez,1,XC Cat 1,Master Women 30-39,,371954,Dallas,  4, 2:43:59.18,    1:10.89,   52:35.89,9.41mph,   54:35.70,9.07mph,   55:36.70,8.90mph
492,Pam,Jackson,1,XC Cat 1,Master Women 40-49,,157028,Garland,  4, 2:32:51.58,    1:11.01,   47:48.09,10.4mph,   51:19.88,9.65mph,   52:32.60,9.42mph
23,Jacob,Asay,1,XC Cat 1,Senior Men 19-29,,324352,Azle,  4, 2:24:21.69,    0:58.36,   43:56.27,11.3mph,   49:06.69,10.1mph,   50:20.37,9.83mph
26,Penny,Ficker,1,XC Cat 1,Senior Women 19-29,,337334,Gilchrist,  4, 2:24:11.10,    1:04.46,   44:59.65,11.0mph,   47:09.50,10.5mph,   50:57.49,9.72mph
5,Todd,Gearhart,1,Single Speed Open,Single Speed Open Men,,340206,Duncanville,  4, 2:09:44.03,    1:10.30,   40:21.49,12.3mph,   43:55.21,11.3mph,   44:17.03,11.2mph
7,Ray,Porter,2,Single Speed Open,Single Speed Open Men,Oak Cliff Bicycle Company,270765,Dallas,  4, 2:11:52.76,    1:09.63,   41:22.59,12.0mph,   43:28.34,11.4mph,   45:52.20,10.8mph
6,Randy,Hancock,3,Single Speed Open,Single Speed Open Men,,384759,Mc Kinney,  4, 2:22:17.21,    1:10.55,   43:36.92,11.4mph,   47:08.50,10.5mph,   50:21.24,9.83mph
276,Ethan,Storm,1,XC Cat 2,Junior Men 13-18,,341794,Arlington,  3, 1:21:07.04,    1:00.49,   39:16.19,12.6mph,   40:50.36,12.1mph,,
248,Austin,Wagner,2,XC Cat 2,Junior Men 13-18,,,Burleson,  3, 1:24:14.00,    1:00.58,   41:02.86,12.1mph,   42:10.56,11.7mph,,
223,William,Plumlee,1,XC Cat 2,Master Men 30-39,,374931,Prosperprosper,  3, 1:16:23.10,    0:57.51,   37:25.44,13.2mph,   38:00.15,13.0mph,,
252,Dale,Dawson,2,XC Cat 2,Master Men 30-39,,377743,Arlington,  3, 1:16:38.44,    0:55.97,   37:22.42,13.2mph,   38:20.05,12.9mph,,
218,Joey,Gabel,3,XC Cat 2,Master Men 30-39,Dallas Bike Works,381425,Grapevine,  3, 1:21:16.32,    0:59.76,   39:24.13,12.6mph,   40:52.43,12.1mph,,
287,Michael,Lalla,4,XC Cat 2,Master Men 30-39,,,,  3, 1:21:39.41,    1:01.73,   39:30.42,12.5mph,   41:07.26,12.0mph,,
278,Troy,Anderson,5,XC Cat 2,Master Men 30-39,,341138,Arlington,  3, 1:23:29.52,    1:02.05,   40:49.66,12.1mph,   41:37.81,11.9mph,,
222,Rodger,Nutt,6,XC Cat 2,Master Men 30-39,McKinney Velo Club,346402,Mckinney,  3, 1:24:13.11,    1:01.52,   41:38.94,11.9mph,   41:32.65,11.9mph,,
227,Chris,Williams,7,XC Cat 2,Master Men 30-39,Dallas off Road Bicycling Association (DOBRA),236000,Dallas,  3, 1:24:13.99,    1:00.45,   39:24.00,12.6mph,   43:49.54,11.3mph,,
226,Dandy,Villanueva,8,XC Cat 2,Master Men 30-39,Off-Road Racing Team/Dallas Bike Works,376502,Wylie,  3, 1:25:22.16,    1:01.07,   41:51.09,11.8mph,   42:30.00,11.6mph,,
266,Rodman,Reyer,9,XC Cat 2,Master Men 30-39,,,,  3, 1:25:22.47,    0:58.91,   41:59.70,11.8mph,   42:23.86,11.7mph,,
224,Francisco,Soto,10,XC Cat 2,Master Men 30-39,,385149,Denton,  3, 1:26:53.67,    0:59.34,   42:20.08,11.7mph,   43:34.25,11.4mph,,
260,Jeremy,Ordaz,11,XC Cat 2,Master Men 30-39,,335020,Dallas,  3, 1:26:58.25,    1:03.78,   42:19.73,11.7mph,   43:34.74,11.4mph,,
284,Matt,Asay,12,XC Cat 2,Master Men 30-39,,315012,Azle,  3, 1:27:33.55,    1:02.87,   42:47.96,11.6mph,   43:42.72,11.3mph,,
251,Nathanael,Goodell,13,XC Cat 2,Master Men 30-39,,358058,,  3, 1:28:33.45,    1:02.56,   42:13.53,11.7mph,   45:17.36,10.9mph,,
219,Aaron,Garrett,14,XC Cat 2,Master Men 30-39,,374897,Mc Kinney,  3, 1:28:33.79,    1:04.04,   42:44.36,11.6mph,   44:45.39,11.1mph,,
255,Dustin,Walker,15,XC Cat 2,Master Men 30-39,,,,  3, 1:29:08.62,    1:05.35,   42:26.08,11.7mph,   45:37.19,10.9mph,,
217,Joshua,Daugherty,16,XC Cat 2,Master Men 30-39,Oak Cliff Bicycle Company,345214,Dallas,  3, 1:30:56.29,    1:00.22,   42:58.34,11.5mph,   46:57.73,10.5mph,,
274,Christopher,Schaefer,17,XC Cat 2,Master Men 30-39,,310215,Dallas,  3, 1:31:28.32,    1:04.59,   42:11.81,11.7mph,   48:11.92,10.3mph,,
214,Aaron,Anderson,18,XC Cat 2,Master Men 30-39,,385640,Frisco,  3, 1:35:35.94,    0:59.40,   45:42.81,10.8mph,   48:53.73,10.1mph,,
225,Joshua,Storm,19,XC Cat 2,Master Men 30-39,Crest/RBM Cycling,200929,Prosper,  3, 1:36:51.22,    1:02.86,   42:32.63,11.6mph,   53:15.73,9.30mph,,
257,Aaron,Daughtery,20,XC Cat 2,Master Men 30-39,,,,  3, 1:38:48.79,    1:07.32,   46:36.42,10.6mph,   51:05.05,9.69mph,,
263,Clint,Tredway,21,XC Cat 2,Master Men 30-39,,,Rowlett,  3, 1:41:04.59,    1:05.62,   48:52.71,10.1mph,   51:06.26,9.69mph,,
221,Ruben,MacIas,22,XC Cat 2,Master Men 30-39,Off-Road Racing Team/Dallas Bike Works,274143,Plano,  3, 2:25:59.72,    1:15.81, 1:05:58.17,7.50mph, 1:18:45.74,6.29mph,,
216,Martin,Bergstrand,DNF,XC Cat 2,Master Men 30-39,,359841,Mc Kinney,  2,   50:02.07,    1:07.20,   48:54.87,10.1mph,,,,
215,Rylan,Balderas,DNF,XC Cat 2,Master Men 30-39,,385648,Dallasdallas,  2,   51:27.45,    1:08.90,   50:18.55,9.84mph,,,,
220,Dustin,Hoppe,DNF,XC Cat 2,Master Men 30-39,,365138,Keller,  1,    1:06.54,    1:06.54,,,,,,
247,Nate,Derr,DNF,XC Cat 2,Master Men 30-39,,,,  1,    1:07.60,    1:07.60,,,,,,
237,Scott,Schmidt,1,XC Cat 2,Master Men 40-49,,313584,Frisco,  3, 1:23:34.73,    0:59.64,   40:38.18,12.2mph,   41:56.91,11.8mph,,
230,David,Dederichs,2,XC Cat 2,Master Men 40-49,McKinney Velo Club,343156,Mckinney,  3, 1:23:45.38,    0:57.62,   40:31.56,12.2mph,   42:16.20,11.7mph,,
234,Mike,Nichols,3,XC Cat 2,Master Men 40-49,McKinney Velo Club,287549,Mckinney,  3, 1:25:12.92,    1:04.18,   41:52.82,11.8mph,   42:15.92,11.7mph,,
233,Scott,McCoy,4,XC Cat 2,Master Men 40-49,,366126,Waxahachie,  3, 1:25:52.97,    1:02.22,   41:04.40,12.1mph,   43:46.35,11.3mph,,
272,Scott,McGowan,5,XC Cat 2,Master Men 40-49,,,Canton,  3, 1:26:02.44,    1:00.12,   41:45.85,11.9mph,   43:16.47,11.4mph,,
286,Dave,Floyd,6,XC Cat 2,Master Men 40-49,,,,  3, 1:26:56.02,    1:04.47,   42:21.56,11.7mph,   43:29.99,11.4mph,,
235,Robert,Plaskota,7,XC Cat 2,Master Men 40-49,,187400,Fort Worth,  3, 1:28:07.76,    0:59.53,   42:55.31,11.5mph,   44:12.92,11.2mph,,
249,John,Markham,8,XC Cat 2,Master Men 40-49,,,Plano,  3, 1:28:20.11,    1:03.04,   43:00.86,11.5mph,   44:16.21,11.2mph,,
254,Mack,McKinney,9,XC Cat 2,Master Men 40-49,,301751,Dallas,  3, 1:29:04.02,    1:00.58,   42:13.76,11.7mph,   45:49.68,10.8mph,,
232,Scott,Long,10,XC Cat 2,Master Men 40-49,,144572,Keller,  3, 1:29:05.74,    1:00.69,   43:21.79,11.4mph,   44:43.26,11.1mph,,
273,Alex,Link,11,XC Cat 2,Master Men 40-49,,190280,,  3, 1:30:02.77,    1:03.57,   43:01.74,11.5mph,   45:57.46,10.8mph,,
238,Jason,Sidwell,12,XC Cat 2,Master Men 40-49,,385652,Flower Mound,  3, 1:30:05.03,    1:03.04,   43:44.52,11.3mph,   45:17.47,10.9mph,,
279,Kevin,Witherstine,13,XC Cat 2,Master Men 40-49,,292486,,  3, 1:30:12.26,    1:06.04,   43:43.67,11.3mph,   45:22.55,10.9mph,,
265,Juan,Garcia,14,XC Cat 2,Master Men 40-49,,,,  3, 1:32:36.29,    1:05.66,   45:03.71,11.0mph,   46:26.92,10.7mph,,
240,David,Webb,15,XC Cat 2,Master Men 40-49,,37461,Dallas,  3, 1:33:24.21,    1:06.35,   44:20.81,11.2mph,   47:57.05,10.3mph,,
269,Michael,Walker,16,XC Cat 2,Master Men 40-49,,,Arlington,  3, 1:35:05.84,    1:03.71,   44:33.16,11.1mph,   49:28.97,10.0mph,,
231,Rick,Knobler,17,XC Cat 2,Master Men 40-49,,384961,Dallas,  3, 1:35:24.54,    0:59.23,   44:09.55,11.2mph,   50:15.76,9.85mph,,
262,Jeff,Noon,18,XC Cat 2,Master Men 40-49,,,76065,  3, 1:36:15.58,    1:01.67,   43:57.30,11.3mph,   51:16.61,9.66mph,,
239,Tony,Washington,19,XC Cat 2,Master Men 40-49,,366211,Fort Worth,  3, 1:36:27.24,    0:57.99,   43:54.41,11.3mph,   51:34.84,9.60mph,,
275,Don,Henson,20,XC Cat 2,Master Men 40-49,,166134,Prosper,  3, 1:39:59.19,    1:04.18,   46:59.76,10.5mph,   51:55.25,9.53mph,,
267,Christopher,Bolan,21,XC Cat 2,Master Men 40-49,,,North Richland Hills,  3, 1:54:19.78,    1:09.90,   55:36.34,8.90mph,   57:33.54,8.60mph,,
228,Ralph,Austin,DNF,XC Cat 2,Master Men 40-49,PACC/Plano Athletic Cycling Club/PACC,385218,Richardson,  2,   29:35.46,    0:56.91,   28:38.55,17.3mph,,,,
229,Carlos,Blandon,DNF,XC Cat 2,Master Men 40-49,Matrix Cycling Club,293752,Mckinney,  2,   43:17.18,    0:58.91,   42:18.27,11.7mph,,,,
280,Alex,Rasmussen,DNF,XC Cat 2,Master Men 40-49,,,,  2, 2:49:52.41,    1:08.98, 2:48:43.43,2.93mph,,,,
447,Frank,Stich,1,XC Cat 2,Master Men 50+,,327594,Coppell,  3, 1:25:11.40,    1:03.54,   41:26.32,11.9mph,   42:41.54,11.6mph,,
258,Diego,Velasquez,2,XC Cat 2,Master Men 50+,,,Mckinney,  3, 1:26:32.10,    1:03.76,   42:17.96,11.7mph,   43:10.38,11.5mph,,
245,Andy,Mitas,3,XC Cat 2,Master Men 50+,,336530,,  3, 1:33:35.61,    1:04.73,   44:01.75,11.2mph,   48:29.13,10.2mph,,
264,Erick,Gibson,4,XC Cat 2,Master Men 50+,,,,  3, 1:38:44.94,    1:04.17,   46:56.40,10.5mph,   50:44.37,9.76mph,,
250,Tom,Anderson,5,XC Cat 2,Master Men 50+,,,Fort Worth,  3, 1:43:22.77,    1:05.23,   49:34.88,10.0mph,   52:42.66,9.39mph,,
242,Leslee,Daugherty,1,XC Cat 2,Master Women 30-39,,384687,Dallas,  3, 1:35:57.48,    1:08.86,   47:07.80,10.5mph,   47:40.82,10.4mph,,
259,Alyssa,Journey,2,XC Cat 2,Master Women 30-39,,187780,,  3, 1:49:01.39,    1:11.86,   52:12.04,9.48mph,   55:37.49,8.90mph,,
243,Monica,Otte,1,XC Cat 2,Master Women 40-49,,385466,Garland,  3, 1:42:36.32,    1:21.03,   50:47.92,9.75mph,   50:27.37,9.81mph,,
268,Denise,Weber,2,XC Cat 2,Master Women 40-49,,209658,Dallas,  3, 1:58:44.88,    1:14.63,   57:11.89,8.66mph, 1:00:18.36,8.21mph,,
277,Sharon,McNutt,3,XC Cat 2,Master Women 40-49,,,,  3, 1:59:15.51,    1:24.71,   58:39.09,8.44mph,   59:11.71,8.36mph,,
210,Grayson,Keppler,1,XC Cat 2,Senior Men 19-29,,380276,Allen,  3, 1:21:37.97,    0:54.13,   39:20.97,12.6mph,   41:22.87,12.0mph,,
283,Joshua,Hidalgo,2,XC Cat 2,Senior Men 19-29,,,,  3, 1:24:39.54,    0:59.36,   40:35.64,12.2mph,   43:04.54,11.5mph,,
246,Mark,Moser,3,XC Cat 2,Senior Men 19-29,,384602,,  3, 1:25:07.91,    0:57.72,   41:27.73,11.9mph,   42:42.46,11.6mph,,
213,Jacob,Salassi,4,XC Cat 2,Senior Men 19-29,,361496,Dallas,  3, 1:25:32.81,    0:59.65,   41:19.31,12.0mph,   43:13.85,11.5mph,,
285,Robert,Robertson,5,XC Cat 2,Senior Men 19-29,,,Arlington,  3, 1:30:33.39,    1:02.51,   42:49.65,11.6mph,   46:41.23,10.6mph,,
211,Aaron,Mason,6,XC Cat 2,Senior Men 19-29,,358059,Irving,  3, 1:31:05.40,    1:01.79,   43:24.40,11.4mph,   46:39.21,10.6mph,,
256,Matthew,McGowan,7,XC Cat 2,Senior Men 19-29,,,,  3, 1:31:06.19,    1:03.66,   45:02.98,11.0mph,   44:59.55,11.0mph,,
212,Anthony,Rodriguez,8,XC Cat 2,Senior Men 19-29,PARK PLACE DEALERSHIPS/Dallas Racing,357787,Plano,  3, 1:32:12.33,    1:00.65,   43:07.73,11.5mph,   48:03.95,10.3mph,,
281,Charles,Allen,9,XC Cat 2,Senior Men 19-29,,368905,,  3, 1:34:02.99,    1:00.93,   44:51.14,11.0mph,   48:10.92,10.3mph,,
244,Shawn,McAfee,10,XC Cat 2,Senior Men 19-29,,380125,Rockwall,  3, 1:34:08.08,    0:59.11,   44:18.27,11.2mph,   48:50.70,10.1mph,,
209,Kevin,Dunnahoo,11,XC Cat 2,Senior Men 19-29,,361981,Denton,  3, 1:42:22.15,    1:03.09,   47:12.49,10.5mph,   54:06.57,9.15mph,,
241,Sydnei,Anderson,1,XC Cat 2,Senior Women 19-29,,385671,Frisco,  3, 1:47:53.70,    1:17.45,   52:00.76,9.52mph,   54:35.49,9.07mph,,
205,Richard,Hellberg,1,Single Speed C2,Single Speed C2 Men,,366128,Dallas,  3, 1:20:55.84,    1:00.60,   39:37.41,12.5mph,   40:17.83,12.3mph,,
206,Curtis,Layton,2,Single Speed C2,Single Speed C2 Men,,384426,Greenville,  3, 1:22:48.96,    1:01.81,   40:17.16,12.3mph,   41:29.99,11.9mph,,
202,Chip,Burrell,3,Single Speed C2,Single Speed C2 Men,,385554,Mc Kinney,  3, 1:24:42.17,    1:02.26,   40:51.36,12.1mph,   42:48.55,11.6mph,,
204,Philip,Haigh,4,Single Speed C2,Single Speed C2 Men,Off-Road Racing Team/Dallas Bike Works,359282,Dallas,  3, 1:25:12.89,    1:00.17,   41:26.55,11.9mph,   42:46.17,11.6mph,,
261,Nick,Torraca,5,Single Speed C2,Single Speed C2 Men,,338924,,  3, 1:26:57.44,    1:00.72,   42:01.33,11.8mph,   43:55.39,11.3mph,,
207,Shannon,Wyatt,6,Single Speed C2,Single Speed C2 Men,,360803,Fort Worth,  3, 1:27:25.90,    1:07.12,   42:46.24,11.6mph,   43:32.54,11.4mph,,
282,Frank,Poelwijk,7,Single Speed C2,Single Speed C2 Men,,,Dallas,  3, 1:29:14.28,    1:06.04,   42:25.61,11.7mph,   45:42.63,10.8mph,,
201,Dana,Burch,8,Single Speed C2,Single Speed C2 Men,big pig,384766,Frisco,  3, 1:29:37.99,    1:05.01,   43:57.26,11.3mph,   44:35.72,11.1mph,,
208,Dmitry,Zhernokletov,9,Single Speed C2,Single Speed C2 Men,,385654,Richardson,  3, 1:32:02.31,    1:07.85,   44:51.71,11.0mph,   46:02.75,10.8mph,,
253,Jeff,Horrin,10,Single Speed C2,Single Speed C2 Men,,366883,,  3, 1:33:41.52,    1:06.32,   43:47.30,11.3mph,   48:47.90,10.1mph,,
271,Denis,Livingston,11,Single Speed C2,Single Speed C2 Men,,,,  3, 1:36:05.78,    1:06.83,   46:59.16,10.5mph,   47:59.79,10.3mph,,
203,Jose,Deanda,DNF,Single Speed C2,Single Speed C2 Men,,385641,Irving,  1,    5:09.21,    5:09.21,,,,,,
270,Ryan,Hildebrandt,DNS,Single Speed C2,Single Speed C2 Men,,,,,,,,,,,,
455,Nelson,Martinez,1,Cat 3 Clydesdale,Men Clydes C3,,385504,Fort Worth,  2,   48:50.82,    1:09.39,   47:41.43,10.4mph,,,,
457,Josh,Watkins,2,Cat 3 Clydesdale,Men Clydes C3,,361229,Carrollton,  2,   52:18.63,    1:11.10,   51:07.53,9.68mph,,,,
468,John,Rooney,3,Cat 3 Clydesdale,Men Clydes C3,,,Forney,  2,   53:32.21,    1:14.37,   52:17.84,9.47mph,,,,
522,Cody,Quirk,4,Cat 3 Clydesdale,Men Clydes C3,,,Dallas,  2,   53:49.85,    1:13.72,   52:36.13,9.41mph,,,,
454,Brian,Hunt,5,Cat 3 Clydesdale,Men Clydes C3,,305435,Grandprairie,  2,   54:53.80,    1:12.88,   53:40.92,9.22mph,,,,
456,Jeff,Moore,6,Cat 3 Clydesdale,Men Clydes C3,,385238,Weatherford,  2,   58:47.28,    1:23.23,   57:24.05,8.62mph,,,,
520,Tony,Bassak,7,Cat 3 Clydesdale,Men Clydes C3,,,Mckinney,  2, 1:07:32.06,    1:07.19, 1:06:24.87,7.45mph,,,,
485,Aj,Kirk,8,Cat 3 Clydesdale,Men Clydes C3,,,,  2, 1:12:32.05,    1:10.70, 1:11:21.35,6.94mph,,,,
498,Blake,Pilgrim,1,XC Cat 3,Junior Men 10-12,,366570,Forney,  3,   25:28.90,    1:06.80,   11:50.24,41.8mph,   12:31.86,39.5mph,,
525,Trevor,Rabenaldt,2,XC Cat 3,Junior Men 10-12,,,,  3,   27:28.47,    1:13.31,   12:15.05,40.4mph,   14:00.11,35.4mph,,
496,Gage,Ballard,3,XC Cat 3,Junior Men 10-12,,,,  3,   27:39.01,    1:16.53,   12:12.73,40.6mph,   14:09.75,35.0mph,,
402,Isaac,Keenan,4,XC Cat 3,Junior Men 10-12,,385608,Mc Kinney,  3,   30:18.12,    1:22.42,   13:52.19,35.7mph,   15:03.51,32.9mph,,
500,Grady,Ward,5,XC Cat 3,Junior Men 10-12,,,,  3,   30:27.63,    1:23.81,   13:52.47,35.7mph,   15:11.35,32.6mph,,
512,Marshall,Rexroat,6,XC Cat 3,Junior Men 10-12,,,Midlothian,  3,   31:03.46,    1:16.78,   13:25.51,36.9mph,   16:21.17,30.3mph,,
523,Austin,Minor,7,XC Cat 3,Junior Men 10-12,,,Ore City,  3,   34:24.64,    1:13.85,   12:13.93,40.5mph,   20:56.86,23.6mph,,
404,Kyle,Visintainer,8,XC Cat 3,Junior Men 10-12,,385384,Dallas,  3,   36:10.00,    1:21.89,   16:00.06,30.9mph,   18:48.05,26.3mph,,
403,Luke,Marchok,9,XC Cat 3,Junior Men 10-12,,384899,Princeton,  3,   40:14.06,    1:27.33,   17:23.68,28.5mph,   21:23.05,23.1mph,,
524,Colin,Herron,DNF,XC Cat 3,Junior Men 10-12,,,,  2,   22:37.33,    1:31.44,   21:05.89,23.5mph,,,,
473,Mauricio,Garcia,1,XC Cat 3,Junior Men 13-18,,,Dallas,  2,   43:20.75,    1:01.69,   42:19.06,11.7mph,,,,
406,Kevin,Pereira,2,XC Cat 3,Junior Men 13-18,,384176,Weatherford,  2,   45:19.62,    1:00.13,   44:19.49,11.2mph,,,,
407,Jake,Vandervaate,3,XC Cat 3,Junior Men 13-18,,385624,Flower Mound,  2,   48:31.68,    1:04.03,   47:27.65,10.4mph,,,,
518,Jacob,Howitt,4,XC Cat 3,Junior Men 13-18,,354032,Allen,  2,   49:47.45,    1:03.19,   48:44.26,10.2mph,,,,
511,Logan,Rainey,5,XC Cat 3,Junior Men 13-18,,36691,Waco,  2,   49:48.48,    1:03.26,   48:45.22,10.2mph,,,,
497,Brad,Lizenby,6,XC Cat 3,Junior Men 13-18,,,Flower Mound,  2,   52:18.77,    1:04.65,   51:14.12,9.66mph,,,,
405,Nathan,Moore,7,XC Cat 3,Junior Men 13-18,,385239,Weatherford,  2, 1:00:56.14,    1:08.16,   59:47.98,8.28mph,,,,
484,Bradley,Ammons,8,XC Cat 3,Junior Men 13-18,,,,  2, 1:03:51.59,    1:08.74, 1:02:42.85,7.89mph,,,,
483,Jordan,Ammons,9,XC Cat 3,Junior Men 13-18,,,,  2, 1:16:54.92,    1:07.14, 1:15:47.78,6.53mph,,,,
467,Will,Sharp,1,XC Cat 3,Junior Men 9 & Under,,,Keller,  2,   13:49.92,    1:18.89,   12:31.03,39.5mph,,,,
510,Connor,Rainey,2,XC Cat 3,Junior Men 9 & Under,,366959,Waco,  2,   13:50.50,    1:19.87,   12:30.63,39.6mph,,,,
401,Landry,Wycough,3,XC Cat 3,Junior Men 9 & Under,,385003,Rockwall,  2,   14:32.90,    1:16.38,   13:16.52,37.3mph,,,,
528,Collin,Turner,4,XC Cat 3,Junior Men 9 & Under,,,,  2,   14:32.98,    1:20.24,   13:12.74,37.5mph,,,,
529,Will,Mabus,5,XC Cat 3,Junior Men 9 & Under,,,Dallas,  2,   15:44.66,    1:21.16,   14:23.50,34.4mph,,,,
514,Ryan,Romo,6,XC Cat 3,Junior Men 9 & Under,,,,  2,   19:04.31,    1:32.67,   17:31.64,28.3mph,,,,
501,Gavin,Ward,7,XC Cat 3,Junior Men 9 & Under,,,,  2,   21:07.76,    1:23.58,   19:44.18,25.1mph,,,,
526,Brayden,Wecks,8,XC Cat 3,Junior Men 9 & Under,,,,  2,   23:33.79,    1:50.99,   21:42.80,22.8mph,,,,
509,Will,Wygant,9,XC Cat 3,Junior Men 9 & Under,,,,  2,   25:00.00,    1:00.00,   24:00.00,20.6mph,,,,
530,Noah,Knobler,10,XC Cat 3,Junior Men 9 & Under,,,,  2,   28:26.48,    1:50.94,   26:35.54,18.6mph,,,,
517,Sarah,Howitt,1,XC Cat 3,Junior Women 10-12,,357961,,  3,   27:11.03,    1:20.12,   12:36.62,39.3mph,   13:14.29,37.4mph,,
459,Alyssa,Moya,2,XC Cat 3,Junior Women 10-12,,385514,Arlington,  3,   27:12.00,    1:20.00,   12:36.00,39.3mph,   13:16.00,37.3mph,,
521,Kaylee,Tredway,1,XC Cat 3,Junior Women 13-18,,,Rowlett,  2, 1:02:44.23,    1:10.11, 1:01:34.12,8.04mph,,,,
471,Jessica,Tudor,2,XC Cat 3,Junior Women 13-18,,,Wylie,  2, 1:03:00.44,    1:12.08, 1:01:48.36,8.01mph,,,,
458,Hailey,Moore,1,XC Cat 3,Junior Women 9 & Under,,385242,Weatherford,  2,   20:06.01,    1:37.45,   18:28.56,26.8mph,,,,
464,Keith,Rohr,1,XC Cat 3,Master Men 30-39,,,,  2,   41:11.34,    0:59.66,   40:11.68,12.3mph,,,,
418,Miguel,Cortez,2,XC Cat 3,Master Men 30-39,,364709,Fort Worth,  2,   42:04.46,    0:58.09,   41:06.37,12.0mph,,,,
434,Heath,Wade,3,XC Cat 3,Master Men 30-39,,385202,Flower Mound,  2,   43:31.82,    0:57.27,   42:34.55,11.6mph,,,,
465,Brandon,Stewart,4,XC Cat 3,Master Men 30-39,,,,  2,   43:39.90,    1:02.95,   42:36.95,11.6mph,,,,
534,Dallas,Perry,5,XC Cat 3,Master Men 30-39,,,,  2,   43:41.62,    1:07.87,   42:33.75,11.6mph,,,,
421,Frank,Etier,6,XC Cat 3,Master Men 30-39,,384353,Savannah,  2,   43:46.88,    1:03.53,   42:43.35,11.6mph,,,,
435,Kenneth,Wagner,7,XC Cat 3,Master Men 30-39,,384834,Mckinney,  2,   44:06.46,    1:00.54,   43:05.92,11.5mph,,,,
426,Charles,Johnson,8,XC Cat 3,Master Men 30-39,,385520,Little Elm,  2,   44:12.56,    1:04.33,   43:08.23,11.5mph,,,,
513,Chris,Byles,9,XC Cat 3,Master Men 30-39,,,,  2,   44:44.42,    1:13.72,   43:30.70,11.4mph,,,,
416,Tom,Attaway,10,XC Cat 3,Master Men 30-39,,385485,Frisco,  2,   44:44.58,    1:01.25,   43:43.33,11.3mph,,,,
422,Keith,Franklin,11,XC Cat 3,Master Men 30-39,Factory Goodness,375693,Fort Worth,  2,   44:58.92,    1:05.09,   43:53.83,11.3mph,,,,
507,Mike,Granata,12,XC Cat 3,Master Men 30-39,,,Frisco,  2,   45:21.40,    1:14.36,   44:07.04,11.2mph,,,,
527,Gabe,McClendon,13,XC Cat 3,Master Men 30-39,,,,  2,   45:27.85,    1:04.48,   44:23.37,11.2mph,,,,
436,Dennis,Weimer,14,XC Cat 3,Master Men 30-39,,341870,Nevada,  2,   45:53.82,    1:06.59,   44:47.23,11.1mph,,,,
506,Juan,Villanueva,15,XC Cat 3,Master Men 30-39,,,,  2,   46:18.48,    1:11.44,   45:07.04,11.0mph,,,,
475,Steven,Morse,16,XC Cat 3,Master Men 30-39,,,,  2,   46:18.77,    1:07.31,   45:11.46,11.0mph,,,,
417,Santiago,Cervantes,17,XC Cat 3,Master Men 30-39,,385675,Grapevine,  2,   46:20.83,    1:12.63,   45:08.20,11.0mph,,,,
431,Bill,Sharp,18,XC Cat 3,Master Men 30-39,,301064,Keller,  2,   46:50.49,    1:10.52,   45:39.97,10.8mph,,,,
532,Thomas,Jensen,19,XC Cat 3,Master Men 30-39,,,,  2,   47:28.50,    1:16.46,   46:12.04,10.7mph,,,,
425,Wilbur,Jennings,20,XC Cat 3,Master Men 30-39,,385569,Plano,  2,   47:48.71,    1:08.74,   46:39.97,10.6mph,,,,
419,Randy,Davis,21,XC Cat 3,Master Men 30-39,,385409,Arlington,  2,   48:43.39,    1:16.03,   47:27.36,10.4mph,,,,
420,Robby,Deveer,22,XC Cat 3,Master Men 30-39,,385334,Allen,  2,   49:26.36,    0:58.33,   48:28.03,10.2mph,,,,
470,Hari,Bhushan,23,XC Cat 3,Master Men 30-39,,,,  2,   50:42.36,    1:18.81,   49:23.55,10.0mph,,,,
476,Matt,Thweatt,24,XC Cat 3,Master Men 30-39,,,,  2,   52:06.89,    1:06.76,   51:00.13,9.71mph,,,,
433,Marcus,Troxell,25,XC Cat 3,Master Men 30-39,,384945,Frisco,  2,   52:12.94,    1:13.62,   50:59.32,9.71mph,,,,
430,Che,Rotramble,26,XC Cat 3,Master Men 30-39,,380410,Decatur,  2,   53:56.21,    1:00.10,   52:56.11,9.35mph,,,,
432,Brian,Smith,27,XC Cat 3,Master Men 30-39,,385620,Farmers Branch,  2,   55:13.39,    1:09.51,   54:03.88,9.16mph,,,,
478,Trey,Stephens,28,XC Cat 3,Master Men 30-39,,,Lewisville,  2,   55:26.73,    1:11.45,   54:15.28,9.12mph,,,,
428,Jarrod,Parker,29,XC Cat 3,Master Men 30-39,,385447,Arlington,  2,   56:35.42,    1:22.15,   55:13.27,8.96mph,,,,
424,Bobby,Harris,30,XC Cat 3,Master Men 30-39,,385446,Mansfield,  2,   56:37.46,    1:08.27,   55:29.19,8.92mph,,,,
505,Sergio,Munoz,31,XC Cat 3,Master Men 30-39,,,Dallas,  2,   58:14.27,    1:24.47,   56:49.80,8.71mph,,,,
490,Wade,Nelson,32,XC Cat 3,Master Men 30-39,,,,  2,   59:20.58,    1:21.98,   57:58.60,8.54mph,,,,
516,Brady,Ruliffson,33,XC Cat 3,Master Men 30-39,,,,  2, 1:01:37.79,    1:10.22, 1:00:27.57,8.19mph,,,,
427,Edgar,Olvera,34,XC Cat 3,Master Men 30-39,,385063,Euless,  2, 1:03:32.19,    1:21.90, 1:02:10.29,7.96mph,,,,
482,Mike,Del,35,XC Cat 3,Master Men 30-39,,,,  2, 1:04:56.67,    1:25.06, 1:03:31.61,7.79mph,,,,
429,Jamie,Range,36,XC Cat 3,Master Men 30-39,,384256,Dallas,  2, 1:08:36.03,    1:17.78, 1:07:18.25,7.36mph,,,,
477,Chad,Anderson,DNF,XC Cat 3,Master Men 30-39,,,Flower Mound,  1,    0:58.87,    0:58.87,,,,,,
489,Steve,Dawson,1,XC Cat 3,Master Men 40-49,,384954,,  2,   43:39.11,    1:00.19,   42:38.92,11.6mph,,,,
442,James,McGovern,2,XC Cat 3,Master Men 40-49,,384351,Richardson,  2,   43:39.13,    1:02.93,   42:36.20,11.6mph,,,,
504,Keith,McDonald,3,XC Cat 3,Master Men 40-49,,,,  2,   43:39.96,    1:04.65,   42:35.31,11.6mph,,,,
499,Grant,Ward,4,XC Cat 3,Master Men 40-49,,,,  2,   45:22.29,    1:09.15,   44:13.14,11.2mph,,,,
444,Alan,Pocock,5,XC Cat 3,Master Men 40-49,,385101,Mckinney,  2,   45:51.48,    1:04.77,   44:46.71,11.1mph,,,,
445,Allen,Powell,6,XC Cat 3,Master Men 40-49,,385638,Dallas,  2,   45:53.12,    1:07.36,   44:45.76,11.1mph,,,,
423,Claudius,Halliday,7,XC Cat 3,Master Men 40-49,,385156,Frisco,  2,   46:13.61,    1:06.00,   45:07.61,11.0mph,,,,
494,Tom,McCracken,8,XC Cat 3,Master Men 40-49,,,Dallas,  2,   46:13.96,    1:12.95,   45:01.01,11.0mph,,,,
472,Fran,Desautels,9,XC Cat 3,Master Men 40-49,,,,  2,   47:26.27,    1:10.38,   46:15.89,10.7mph,,,,
495,Joseph,Jung,10,XC Cat 3,Master Men 40-49,,,,  2,   47:31.22,    1:11.35,   46:19.87,10.7mph,,,,
438,Steven,Blackburn,11,XC Cat 3,Master Men 40-49,,385672,Rockwall,  2,   47:36.00,    1:10.00,   46:26.00,10.7mph,,,,
486,Andrew,Scheller,12,XC Cat 3,Master Men 40-49,,,,  2,   47:36.23,    1:10.77,   46:25.46,10.7mph,,,,
531,Joey,Anzaldua,13,XC Cat 3,Master Men 40-49,,311887,Bedford,  2,   48:04.96,    1:12.41,   46:52.55,10.6mph,,,,
481,Jason,West,14,XC Cat 3,Master Men 40-49,,233380,Garland,  2,   48:14.06,    1:08.06,   47:06.00,10.5mph,,,,
439,William,Herrera,15,XC Cat 3,Master Men 40-49,,360782,Dallas,  2,   48:50.30,    1:11.01,   47:39.29,10.4mph,,,,
236,Ken,Rushing,16,XC Cat 3,Master Men 40-49,,385623,Arlington,  2,   49:21.19,    1:14.19,   48:07.00,10.3mph,,,,
441,Bill,Keenan,17,XC Cat 3,Master Men 40-49,,385607,Mc Kinney,  2,   49:24.17,    1:15.80,   48:08.37,10.3mph,,,,
466,Chris,Clendenin,18,XC Cat 3,Master Men 40-49,,,Arlington,  2,   50:43.03,    1:19.71,   49:23.32,10.0mph,,,,
443,David,Nelke,19,XC Cat 3,Master Men 40-49,,359664,Frisco,  2,   50:46.96,    1:13.39,   49:33.57,10.0mph,,,,
488,Jorge,Tovar,20,XC Cat 3,Master Men 40-49,,,Dallas,  2,   52:09.87,    1:12.91,   50:56.96,9.72mph,,,,
440,Bill,Jones,21,XC Cat 3,Master Men 40-49,,385613,Carrollton,  2,   52:22.97,    1:12.39,   51:10.58,9.67mph,,,,
493,Patrick,Taylor,22,XC Cat 3,Master Men 40-49,,,,  2,   53:14.17,    1:25.65,   51:48.52,9.56mph,,,,
446,Steven,Whitley,23,XC Cat 3,Master Men 40-49,,385568,Frisco,  2,   56:11.67,    1:25.09,   54:46.58,9.04mph,,,,
474,Ken,McGraw,24,XC Cat 3,Master Men 40-49,,,,  2,   57:20.68,    1:22.84,   55:57.84,8.85mph,,,,
437,Rick,Ammons,25,XC Cat 3,Master Men 40-49,Dallas off Road Bicycling Association (DOBRA),182480,North Richland Hills,  2, 1:19:10.33,    1:14.64, 1:17:55.69,6.35mph,,,,
502,Paul,Davis,1,XC Cat 3,Master Men 50+,,,The Colony,  2,   46:53.51,    1:05.29,   45:48.22,10.8mph,,,,
480,Ken,Chambliss,2,XC Cat 3,Master Men 50+,,378431,,  2,   47:06.17,    1:07.89,   45:58.28,10.8mph,,,,
452,Brant,Roeming,3,XC Cat 3,Master Men 50+,,385593,Colleyville,  2,   47:14.52,    1:03.33,   46:11.19,10.7mph,,,,
453,Mark,Wygant,4,XC Cat 3,Master Men 50+,,39110,Wylie,  2,   47:35.39,    1:08.40,   46:26.99,10.7mph,,,,
449,Anthony,Baker,5,XC Cat 3,Master Men 50+,,385457,Austin,  2,   48:16.60,    1:04.92,   47:11.68,10.5mph,,,,
448,Brent,Armstrong,6,XC Cat 3,Master Men 50+,,385443,Lindale,  2,   50:53.49,    1:12.38,   49:41.11,10.0mph,,,,
508,Greg,Golly,7,XC Cat 3,Master Men 50+,,78506,Grapevine,  2,   51:36.52,    1:17.18,   50:19.34,9.84mph,,,,
451,Dan,Marchok,8,XC Cat 3,Master Men 50+,Dallas off Road Bicycling Association (DOBRA),358548,Princeton,  2,   52:03.66,    1:06.75,   50:56.91,9.72mph,,,,
469,Darrell,Lawrence,9,XC Cat 3,Master Men 50+,,,,  2,   54:23.97,    1:20.86,   53:03.11,9.33mph,,,,
450,John,Loewen,10,XC Cat 3,Master Men 50+,,385448,Mckinney,  2, 1:02:30.46,    1:14.68, 1:01:15.78,8.08mph,,,,
461,Amber,Drake,1,XC Cat 3,Master Women 30-39,,385412,Keller,  2,   54:19.08,    1:11.76,   53:07.32,9.32mph,,,,
487,Dianna,Brackeen,1,XC Cat 3,Master Women 40-49,,,,  2, 1:01:01.68,    1:24.85,   59:36.83,8.31mph,,,,
462,Jill,Moore,2,XC Cat 3,Master Women 40-49,,385233,Weatherford,  2, 1:05:04.10,    1:25.76, 1:03:38.34,7.78mph,,,,
519,Chi,Bennett,3,XC Cat 3,Master Women 40-49,,,Carrollton,  2, 1:10:30.51,    1:23.03, 1:09:07.48,7.16mph,,,,
463,Tricia,Loewen,1,XC Cat 3,Master Women 50+,,385462,Mc Kinney,  2, 1:10:23.08,    1:29.17, 1:08:53.91,7.19mph,,,,
415,Daniel,Wright,1,XC Cat 3,Senior Men 19-29,,378622,Dallas,  2,   42:39.74,    1:02.74,   41:37.00,11.9mph,,,,
503,Anthony,Killoran,2,XC Cat 3,Senior Men 19-29,,,Mansfield,  2,   43:38.30,    1:01.25,   42:37.05,11.6mph,,,,
533,Christopher,Thayer,3,XC Cat 3,Senior Men 19-29,,,Houston,  2,   45:29.28,    1:09.01,   44:20.27,11.2mph,,,,
491,Josh,Crain,4,XC Cat 3,Senior Men 19-29,,,,  2,   46:13.22,    1:02.00,   45:11.22,11.0mph,,,,
409,Jesse,Bernal,5,XC Cat 3,Senior Men 19-29,,385241,Denton,  2,   49:17.31,    1:01.56,   48:15.75,10.3mph,,,,
410,Justin,Harris,6,XC Cat 3,Senior Men 19-29,,385636,Fort Worth,  2,   52:30.07,    1:10.43,   51:19.64,9.65mph,,,,
411,Joe,Kilo,7,XC Cat 3,Senior Men 19-29,,385592,Mesquite,  2,   57:59.74,    2:03.97,   55:55.77,8.85mph,,,,
412,Tim,Kosters,8,XC Cat 3,Senior Men 19-29,University of North Texas,385002,Frisco,  2, 1:01:08.30,    1:19.81,   59:48.49,8.28mph,,,,
408,Emilio,Barela,9,XC Cat 3,Senior Men 19-29,,385605,Mansfield,  2, 1:16:50.88,    3:31.77, 1:13:19.11,6.75mph,,,,
413,Daniel,Rigney,DNF,XC Cat 3,Senior Men 19-29,,385073,Waco,  1,    1:15.96,    1:15.96,,,,,,
414,Stephen,Salyer,DNS,XC Cat 3,Senior Men 19-29,,,,,,,,,,,,
460,Nebile,Uysaler,1,XC Cat 3,Senior Women 19-29,,384328,Alvarado,  2, 1:02:39.92,    1:30.43, 1:01:09.49,8.09mph,,,,
479,Dana,Rignay,2,XC Cat 3,Senior Women 19-29,,,,  2, 1:27:50.35,    1:31.34, 1:26:19.01,5.73mph,,,,