472,1158,Ronnie,Cooke,1,2013-10-26,2142157103,9723582018,"Vanessa Cooke","2012-10-26 09:24:54",0,ronnie.vanessacooke@gmail.com,,
483,1208,beau,ellis,1,2013-10-31,,8177269221,8177269197,"2012-10-31 13:44:54",0,beauellis21@gmail.com,,
58,1116,John,Shelburne,1,2013-10-21,2149070757,2149070757,"Tanny Shelburne",,0,jshelburne@gmail.com,,
57,1115,Sam,Sheeder,1,2013-10-21,2144449396,2149127200,2146763692,,0,meisskater@gmail.com,,
484,1209,jackie,logan,1,2013-10-31,972-222-3482,214-343-2916,"Pam Logan","2012-10-31 16:08:23",0,jlljr@att.net,,
55,1110,"Duke ",Dennis,1,2013-10-21,410-726-7279,410-726-7279,410-726-6578,,0,captainred23@gmail.com,,
54,1098,Harrison,Chahal,1,2013-10-20,9723557903,8055014459,"Rachel - 8054047470",,0,harrison.chahal@gmail.com,,
51,1073,Jay,Heacock,1,2013-10-19,214-207-7060,214-207-7060,"Jim Heacock",,0,developer9719@yahoo.com,,
50,1072,Hays,McCormick,1,2013-10-19,407.620.0964,407.620.0964,"Glen Carlson",,0,dfwfunboi@gmail.com,,
49,1065,joe,deleon,1,2013-10-19,,,,,0,broncojd78@yahoo.com,,
48,1058,Joseph,Walls,1,2013-10-18,214-636-6781,214-636-6781,"Valerie 214-208-7185",,0,mrjosephwalls@gmail.com,,
47,1056,Brad,Keating,1,2013-10-18,,9723810030,"Lorraine Keating",,0,bkeating@electricdrilling.net,,
46,730,Rojelio,"Martinez Jr.",1,2013-10-18,,(214)762-7202,"Rita Martinez (469)258-0427",,0,jrmtz@yahoo.com,,
45,1042,William,schmidlkofer,1,2013-10-17,8176856888,,8176024686,,0,wj_schmid@hotmail.com,,
60,144,richardthomas,,1,2013-10-22,,,,,0,richisnow@hotmail.com,,
61,1123,Duke,Dennis,1,2013-10-22,410-726-7279,410-726-7279,410-726-6578,,0,captainred23@gmail.com,,
65,58,Blain,Norfleet,1,2013-10-22,,214-957-8622,"Connie Norfleet 214-549-9924",,0,blain.norfleet@gmail.com,,
473,1161,lpjoseph,,1,2013-10-26,,,,"2012-10-26 12:40:16",0,larry_joseph@yahoo.com,,
469,256,chez817,,1,2013-10-25,,,,"2012-10-25 20:01:58",0,chez817@hotmail.com,,
475,287,Andrew,Thomas,1,2013-10-26,,813-966-9928,"Betty Thomas, 469-363-0901","2012-10-26 16:50:10",0,andrew.thomas22@att.net,,
466,1142,njoy2day,Gerry,1,2013-10-24,,469-713-9855,,"2012-10-24 10:33:12",0,gdouglas32@gmail.com,,
476,1166,superd,,1,2013-10-26,,,,"2012-10-26 23:03:02",0,leod@swbell.net,,
464,1134,Eduardo,Ventura,1,2013-10-23,,2149096166,,"2012-10-23 08:04:16",0,eduardoventura82@gmail.com,,
323,622,David,Sheahan,1,2013-10-31,972-392-1153,214-906-7336,"Aimee Sheahan",,0,dsheahan@yahoo.com,,
242,396,Casey,Harris,1,2013-10-09,,,,,0,texas25rs@tx.rr.com,,
176,229,Shane,Walden,1,2013-10-22,,,,,0,xswalden1@yahoo.com,,
478,1173,Khrystal,Landrum,1,2013-10-28,,214-287-4317,"Daryl Landrum 903-880-4976","2012-10-28 09:22:25",0,kmarchelle25@aol.com,,
90,93,Kristopher,Chelette,1,2013-11-01,,,,,0,goongala@gmail.com,,
83,84,Kenneth,Russell,1,2013-10-29,,,,,0,kenneth.e.russell@gmail.com,,
69,63,Pam,Jackson,1,2013-10-31,,,,,0,happy2mtnbike@aol.com,,
44,1040,Dan,Zimmerman,1,2013-10-17,2146959878,2146959878,2146794526,,0,danz@stop-on-a-dime.com,,
485,241,Ron,Evans,1,2013-10-31,469-500-0045,214-202-8297,"Cassie Evans","2012-10-31 21:30:39",0,ron.evans4@gmail.com,,
23,998,Bill,Ory,1,2013-10-15,2143288006,2145594269,2143848433,,0,billory@sbcglobal.net,,
19,677,Cam,Mayfield,1,2013-10-14,,214-797-4400,214-797-4410,,0,cam.mayfield@yahoo.com,,
22,997,Amy,Boyd,1,2013-10-14,2149374611,2144179560,"Blake Bombich 214-223-5481",,0,tech.witch@gmail.com,,
20,994,David,Mack,1,2013-10-14,,,,,0,Jstraw97@yahoo.com,,
56,1113,Eric,Roberts,1,2013-10-21,,972.978.6558,,,0,robertscasa@msn.com,,
18,222,tommcm,,1,2013-10-14,,,,,0,tommcm@mac.com,,
17,993,Jehanzaib,Alvi,1,2013-10-14,,972-310-3629,469-600-4259,,0,archangel84@gmail.com,,
16,189,Bill,,1,2013-10-14,Johnson,,911,,0,billyptx@aol.com,,
14,81,Shane,Salley,1,2013-10-14,,214-325-6794,214-325-7893,,0,hurricanebama@hotmail.com,,
12,119,BrianB,,1,2013-10-13,,,,,0,brianb@thedartboard.net,,
11,226,Fastcatfur,,1,2013-10-13,,,,,0,pdclimer@hotmail.com,,
10,210,ycookmd,,1,2013-10-13,,,,,0,ycookmd@yahoo.com,,
8,288,Mbvlink,,1,2013-10-12,,,,,0,mbvlink@verizon.net,,
24,999,Rusty,Greer,1,2013-10-15,,817-401-3659,817-401-3661,,0,greer29@gmail.com,,
26,1000,Chris,Pearson,1,2013-10-15,903-588-8302,903-588-8302,Tammy,,0,jcptrp@verizon.net,,
487,1216,Catherine,Freeman,1,2013-11-01,202-210-3099,469-394-4843,"Carol Freeman 301-983-1504","2012-11-01 13:16:20",0,freecat108@gmail.com,,
42,1029,Charles,Richards,1,2013-10-16,8172653370,8179376595,"Amy Richards",,0,Charles76011@yahoo.com,,
41,1028,brad,lizenby,1,2013-10-16,2142126034,2142126034,2142126034,,0,lizenby@tx.rr.com,,
40,1025,ERIC,BERRY,1,2013-10-16,8933128144,9033128144,2145070126,,0,ericlberry@yahoo.com,,
39,1024,Richard,Campbell,1,2013-10-16,,214-543-1668,"Bill Campbell 770-356-4173",,0,planotxdawg@yahoo.com,,
38,1022,K,Kolb,1,2013-10-16,2146073053,2146073053,2142080302,,0,tinak96@yahoo.com,,
37,1020,T,Kolb,1,2013-10-16,,214-607-3053,,,0,tinak1026@yahoo.com,,
36,80,Shimmy_sidi1,,1,2013-10-15,,,,,0,cbt1967@yahoo.com,,
35,148,Tex-Maniac,,1,2013-10-15,,,,,0,tex.maniac@gmail.com,,
30,352,Keith,,1,2013-10-15,,,,,0,kearly@rocketmail.com,,
33,1010,Clark,Helms,1,2013-10-15,,214-578-9115,"Karen 972-672-5589",,0,clarkhelms@yahoo.com,,
486,1213,Paul,"McCoppin Sr.",1,2013-11-01,,9724000239,409-920-3958,"2012-11-01 09:06:39",0,mac643@aol.com,,
28,1006,Patrick,McNally,1,2013-10-15,,4697345556,,,0,pj_mcnally@yahoo.com,,
29,695,Vaughn,Williamson,1,2013-10-15,940-374-9950,972-839-9653,,,0,quihi57@gmail.com,,
1095,989,Drew,Tucker,2,2013-10-05,,,,"2013-02-11 07:25:00",0,drew@spinnerproductions.org,,
474,1162,Justin,McCracken,2,2013-10-26,972-202-9151,214-906-7054,214-906-4955,"2012-10-26 14:54:28",0,WS6blade@verizon.net,,
477,1172,Price,Barker,2,2013-10-28,318-828-4455,318-469-3418,"Cynthia Barker","2012-10-28 07:30:13",0,price.barker@cookyancey.com,,
480,1181,Joe,Hernandez,2,2013-10-28,214-497-4697,214-497-4697,,"2012-10-28 21:13:23",0,Joeh2401@msn.com,,
479,1178,Clay,Myers,2,2013-10-28,469-323-8757,469-323-8757,817-727-2420,"2012-10-28 17:04:28",0,claymyers@ymail.com,,
482,1188,Kevin,Stanford,2,2013-10-29,903-229-7067,903-229-7067,903-714-7610,"2012-10-29 19:28:21",0,Kevincstanford@me.com,,
471,1157,Jared,Baucum,2,2013-10-26,,2145146485,"Summer 4692479005","2012-10-26 09:14:32",0,jared_baucum@yahoo.com,,
27,1002,Ed,Grusnis,2,2013-10-15,,952-847-3689,Marianne,,0,ed.grusnis@pepsico.com,,
32,1009,Sarah,Mohrle,2,2013-10-15,2149064097,,"Kerry Williams - 2145783203",,0,sarahmohrle@gmail.com,,
43,219,ruffian,,2,2013-10-17,,,,,0,jason_schlueter@yahoo.com,,
5,199,Dhakota,,2,2013-10-07,,,,,0,d@dhakota.org,,
82,82,Ray,Luedecke,2,2013-10-31,,,911,,0,rluedecke@sbcglobal.net,,
84,86,Dean,Nix,2,2013-10-01,,,,,0,dnix@ra.rockwell.com,,
102,110,Francois,Lafontaine,2,2013-10-22,972-664-1226,214-717-0630,"Anik Gilbert 972-664-1226",,0,flafonta@gmail.com,,
155,197,Kim,O,2,2013-10-22,,,,,0,kim_olsen_texas@yahoo.com,,
230,343,Eric,Schneider,2,2013-10-26,,,,,0,ebcc.schneider@verizon.net,,
465,832,willie,,2,2013-10-23,,,,"2012-10-23 13:49:41",0,slimpickens4326-fas@yahoo.com,,
468,1145,Royce,Barnett,2,2013-10-24,(512)785-4478,(512)785-4478,(512)925-4995,"2012-10-24 17:21:32",0,royce.b234@gmail.com,,
470,1155,Carlos,Luevano,2,2013-10-26,9152564315,9152564315,972697699,"2012-10-26 00:04:04",0,Carlosluevanojr@gmail.com,,
7,185,"Big Pig",,2,2013-10-12,,,,,0,szecsy1@sbcglobal.net,,
59,1120,Richard,Wharton,4,2013-10-22,,214-616-9850,214-616-9851,,0,whareagle@gmail.com,,
